%!PS-Adobe-3.0 EPSF-3.0
%%DocumentNeededResources: font Helvetica
%%+ font Helvetica-Bold
%%+ font Helvetica-Oblique
%%+ font Helvetica-BoldOblique
%%+ font Symbol
%%Title: R Graphics Output
%%Creator: R Software
%%Pages: (atend)
%%BoundingBox: 0 0 265 329
%%EndComments
%%BeginProlog
/bp  { gs sRGB gs } def
% begin .ps.prolog
/gs  { gsave } bind def
/gr  { grestore } bind def
/ep  { showpage gr gr } bind def
/m   { moveto } bind def
/l  { rlineto } bind def
/np  { newpath } bind def
/cp  { closepath } bind def
/f   { fill } bind def
/o   { stroke } bind def
/c   { newpath 0 360 arc } bind def
/r   { 4 2 roll moveto 1 copy 3 -1 roll exch 0 exch rlineto 0 rlineto -1 mul 0 exch rlineto closepath } bind def
/p1  { stroke } bind def
/p2  { gsave bg fill grestore newpath } bind def
/p3  { gsave bg fill grestore stroke } bind def
/p6  { gsave bg eofill grestore newpath } bind def
/p7  { gsave bg eofill grestore stroke } bind def
/t   { 5 -2 roll moveto gsave rotate
       1 index stringwidth pop
       mul neg 0 rmoveto show grestore } bind def
/ta  { 4 -2 roll moveto gsave rotate show } bind def
/tb  { 2 -1 roll 0 rmoveto show } bind def
/cl  { grestore gsave newpath 3 index 3 index moveto 1 index
       4 -1 roll lineto  exch 1 index lineto lineto
       closepath clip newpath } bind def
/rgb { setrgbcolor } bind def
/s   { scalefont setfont } bind def
% end   .ps.prolog
/sRGB { [ /CIEBasedABC
          << /DecodeLMN
               [ { dup 0.03928 le
                        {12.92321 div}
                        {0.055 add 1.055 div 2.4 exp }
                     ifelse
                 } bind dup dup
               ]
             /MatrixLMN [0.412457 0.212673 0.019334
                         0.357576 0.715152 0.119192
                         0.180437 0.072175 0.950301]
             /WhitePoint [0.9505 1.0 1.0890]
           >>
         ] setcolorspace } bind def
/srgb { setcolor } bind def
% begin encoding
/WinAnsiEncoding [
 /.notdef /.notdef /.notdef /.notdef /.notdef /.notdef /.notdef /.notdef
 /.notdef /.notdef /.notdef /.notdef /.notdef /.notdef /.notdef /.notdef
 /.notdef /.notdef /.notdef /.notdef /.notdef /.notdef /.notdef /.notdef
 /.notdef /.notdef /.notdef /.notdef /.notdef /.notdef /.notdef /.notdef
 /space /exclam /quotedbl /numbersign /dollar /percent /ampersand /quoteright
 /parenleft /parenright /asterisk /plus /comma /minus /period /slash
 /zero /one /two /three /four /five /six /seven
 /eight /nine /colon /semicolon /less /equal /greater /question
 /at /A /B /C /D /E /F /G
 /H /I /J /K /L /M /N /O
 /P /Q /R /S /T /U /V /W
 /X /Y /Z /bracketleft /backslash /bracketright /asciicircum /underscore
 /grave /a /b /c /d /e /f /g
 /h /i /j /k /l /m /n /o
 /p /q /r /s /t /u /v /w
 /x /y /z /braceleft /bar /braceright /asciitilde /.notdef
 /Euro /.notdef /quotesinglbase /florin /quotedblbase /ellipsis /dagger /daggerdbl
 /circumflex /perthousand /Scaron /guilsinglleft /OE /.notdef /Zcaron /.notdef
 /.notdef /quoteleft /quoteright /quotedblleft /quotedblright /bullet /endash /emdash
 /tilde /trademark /scaron /guilsinglright /oe /.notdef /zcaron /Ydieresis
 /space /exclamdown /cent /sterling /currency /yen /brokenbar /section
 /dieresis /copyright /ordfeminine /guillemotleft /logicalnot /hyphen /registered /macron
 /degree /plusminus /twosuperior /threesuperior /acute /mu /paragraph /periodcentered
 /cedilla /onesuperior /ordmasculine /guillemotright /onequarter /onehalf /threequarters /questiondown
 /Agrave /Aacute /Acircumflex /Atilde /Adieresis /Aring /AE /Ccedilla
 /Egrave /Eacute /Ecircumflex /Edieresis /Igrave /Iacute /Icircumflex /Idieresis
 /Eth /Ntilde /Ograve /Oacute /Ocircumflex /Otilde /Odieresis /multiply
 /Oslash /Ugrave /Uacute /Ucircumflex /Udieresis /Yacute /Thorn /germandbls
 /agrave /aacute /acircumflex /atilde /adieresis /aring /ae /ccedilla
 /egrave /eacute /ecircumflex /edieresis /igrave /iacute /icircumflex /idieresis
 /eth /ntilde /ograve /oacute /ocircumflex /otilde /odieresis /divide
 /oslash /ugrave /uacute /ucircumflex /udieresis /yacute /thorn /ydieresis
]
 def
% end encoding
%%IncludeResource: font Helvetica
/Helvetica findfont
dup length dict begin
  {1 index /FID ne {def} {pop pop} ifelse} forall
  /Encoding WinAnsiEncoding def
  currentdict
  end
/Font1 exch definefont pop
%%IncludeResource: font Helvetica-Bold
/Helvetica-Bold findfont
dup length dict begin
  {1 index /FID ne {def} {pop pop} ifelse} forall
  /Encoding WinAnsiEncoding def
  currentdict
  end
/Font2 exch definefont pop
%%IncludeResource: font Helvetica-Oblique
/Helvetica-Oblique findfont
dup length dict begin
  {1 index /FID ne {def} {pop pop} ifelse} forall
  /Encoding WinAnsiEncoding def
  currentdict
  end
/Font3 exch definefont pop
%%IncludeResource: font Helvetica-BoldOblique
/Helvetica-BoldOblique findfont
dup length dict begin
  {1 index /FID ne {def} {pop pop} ifelse} forall
  /Encoding WinAnsiEncoding def
  currentdict
  end
/Font4 exch definefont pop
%%IncludeResource: font Symbol
/Symbol findfont
dup length dict begin
  {1 index /FID ne {def} {pop pop} ifelse} forall
  currentdict
  end
/Font5 exch definefont pop
%%EndProlog
%%Page: 1 1
bp
0.00 0.00 264.75 329.25 cl
0.00 0.00 264.75 329.25 cl
0.00 0.00 264.75 329.25 cl
0.00 0.00 264.75 329.25 cl
0.00 0.00 264.75 329.25 cl
0.00 0.00 264.75 329.25 cl
0.00 0.00 264.75 329.25 cl
0.00 0.00 264.75 329.25 cl
0.00 0.00 264.75 329.25 cl
0.00 0.00 264.75 329.25 cl
0.00 0.00 264.75 329.25 cl
/bg { 1 1 1 srgb } def
1 1 1 srgb
1.07 setlinewidth
[] 0 setdash
1 setlinecap
1 setlinejoin
10.00 setmiterlimit
0.00 0.00 264.75 329.25 r p3
0.00 0.00 264.75 329.25 cl
41.30 30.25 259.27 305.61 cl
/bg { 0.9216 0.9216 0.9216 srgb } def
41.30 30.25 217.97 275.36 r p2
1 1 1 srgb
0.53 setlinewidth
[] 0 setdash
0 setlinecap
1 setlinejoin
10.00 setmiterlimit
np
41.30 74.06 m
217.97 0 l
o
np
41.30 136.64 m
217.97 0 l
o
np
41.30 199.22 m
217.97 0 l
o
np
41.30 261.80 m
217.97 0 l
o
1.07 setlinewidth
[] 0 setdash
np
41.30 42.77 m
217.97 0 l
o
np
41.30 105.35 m
217.97 0 l
o
np
41.30 167.93 m
217.97 0 l
o
np
41.30 230.51 m
217.97 0 l
o
np
41.30 293.10 m
217.97 0 l
o
np
82.17 30.25 m
0 275.36 l
o
np
150.29 30.25 m
0 275.36 l
o
np
218.40 30.25 m
0 275.36 l
o
/bg { 0.3490 0.3490 0.3490 srgb } def
51.52 42.77 61.30 87.61 r p2
119.63 42.77 61.30 62.58 r p2
187.75 42.77 61.30 237.81 r p2
0.00 0.00 264.75 329.25 cl
0.00 0.00 264.75 329.25 cl
0.00 0.00 264.75 329.25 cl
0.00 0.00 264.75 329.25 cl
0.00 0.00 264.75 329.25 cl
0.00 0.00 264.75 329.25 cl
0.00 0.00 264.75 329.25 cl
0.00 0.00 264.75 329.25 cl
0.00 0.00 264.75 329.25 cl
0.00 0.00 264.75 329.25 cl
0.00 0.00 264.75 329.25 cl
0.00 0.00 264.75 329.25 cl
0.00 0.00 264.75 329.25 cl
0.00 0.00 264.75 329.25 cl
0.00 0.00 264.75 329.25 cl
0.00 0.00 264.75 329.25 cl
/Font1 findfont 9 s
0.3020 0.3020 0.3020 srgb
36.37 39.54 (0.00) 1 0 t
36.37 102.12 (0.25) 1 0 t
36.37 164.70 (0.50) 1 0 t
36.37 227.28 (0.75) 1 0 t
36.37 289.86 (1.00) 1 0 t
0.00 0.00 264.75 329.25 cl
0.00 0.00 264.75 329.25 cl
0.2000 0.2000 0.2000 srgb
1.07 setlinewidth
[] 0 setdash
0 setlinecap
1 setlinejoin
10.00 setmiterlimit
np
38.56 42.77 m
2.74 0 l
o
np
38.56 105.35 m
2.74 0 l
o
np
38.56 167.93 m
2.74 0 l
o
np
38.56 230.51 m
2.74 0 l
o
np
38.56 293.10 m
2.74 0 l
o
0.00 0.00 264.75 329.25 cl
0.00 0.00 264.75 329.25 cl
0.00 0.00 264.75 329.25 cl
0.00 0.00 264.75 329.25 cl
0.00 0.00 264.75 329.25 cl
0.00 0.00 264.75 329.25 cl
0.00 0.00 264.75 329.25 cl
0.00 0.00 264.75 329.25 cl
0.00 0.00 264.75 329.25 cl
0.00 0.00 264.75 329.25 cl
0.2000 0.2000 0.2000 srgb
1.07 setlinewidth
[] 0 setdash
0 setlinecap
1 setlinejoin
10.00 setmiterlimit
np
82.17 27.51 m
0 2.74 l
o
np
150.29 27.51 m
0 2.74 l
o
np
218.40 27.51 m
0 2.74 l
o
0.00 0.00 264.75 329.25 cl
0.00 0.00 264.75 329.25 cl
/Font1 findfont 9 s
0.3020 0.3020 0.3020 srgb
82.17 18.86 (dataset1) .5 0 t
150.29 18.86 (dataset2) .5 0 t
218.40 18.86 (dataset3) .5 0 t
0.00 0.00 264.75 329.25 cl
0.00 0.00 264.75 329.25 cl
0.00 0.00 264.75 329.25 cl
0.00 0.00 264.75 329.25 cl
0.00 0.00 264.75 329.25 cl
0.00 0.00 264.75 329.25 cl
/Font1 findfont 11 s
0 0 0 srgb
150.29 5.48 (Dataset) .5 0 t
0.00 0.00 264.75 329.25 cl
0.00 0.00 264.75 329.25 cl
/Font1 findfont 11 s
0 0 0 srgb
13.38 167.93 (Result) .5 90 t
0.00 0.00 264.75 329.25 cl
0.00 0.00 264.75 329.25 cl
0.00 0.00 264.75 329.25 cl
0.00 0.00 264.75 329.25 cl
0.00 0.00 264.75 329.25 cl
0.00 0.00 264.75 329.25 cl
/Font1 findfont 13 s
0 0 0 srgb
41.30 314.44 (Application of Method A) 0 0 t
0.00 0.00 264.75 329.25 cl
0.00 0.00 264.75 329.25 cl
0.00 0.00 264.75 329.25 cl
0.00 0.00 264.75 329.25 cl
ep
%%Trailer
%%Pages: 1
%%EOF
